%YAML 1.1
%TAG !u! tag:unity3d.com,2011:
--- !u!1001 &2730082609560732541
PrefabInstance:
  m_ObjectHideFlags: 0
  serializedVersion: 2
  m_Modification:
    m_TransformParent: {fileID: 0}
    m_Modifications:
    - target: {fileID: 282659214307874334, guid: 3a7727cbd6f87ec40bd697eb51463568,
        type: 3}
      propertyPath: m_Name
      value: PRF_Window01 Purple Variant
      objectReference: {fileID: 0}
    - target: {fileID: 2925680300781658593, guid: 3a7727cbd6f87ec40bd697eb51463568,
        type: 3}
      propertyPath: m_LocalPosition.x
      value: 2.5
      objectReference: {fileID: 0}
    - target: {fileID: 2925680300781658593, guid: 3a7727cbd6f87ec40bd697eb51463568,
        type: 3}
      propertyPath: m_LocalPosition.y
      value: 0
      objectReference: {fileID: 0}
    - target: {fileID: 2925680300781658593, guid: 3a7727cbd6f87ec40bd697eb51463568,
        type: 3}
      propertyPath: m_LocalPosition.z
      value: -3
      objectReference: {fileID: 0}
    - target: {fileID: 2925680300781658593, guid: 3a7727cbd6f87ec40bd697eb51463568,
        type: 3}
      propertyPath: m_LocalRotation.x
      value: -0.7071068
      objectReference: {fileID: 0}
    - target: {fileID: 2925680300781658593, guid: 3a7727cbd6f87ec40bd697eb51463568,
        type: 3}
      propertyPath: m_LocalRotation.y
      value: -0
      objectReference: {fileID: 0}
    - target: {fileID: 2925680300781658593, guid: 3a7727cbd6f87ec40bd697eb51463568,
        type: 3}
      propertyPath: m_LocalRotation.z
      value: -0
      objectReference: {fileID: 0}
    - target: {fileID: 2925680300781658593, guid: 3a7727cbd6f87ec40bd697eb51463568,
        type: 3}
      propertyPath: m_LocalRotation.w
      value: 0.7071067
      objectReference: {fileID: 0}
    - target: {fileID: 2925680300781658593, guid: 3a7727cbd6f87ec40bd697eb51463568,
        type: 3}
      propertyPath: m_RootOrder
      value: 0
      objectReference: {fileID: 0}
    - target: {fileID: 2925680300781658593, guid: 3a7727cbd6f87ec40bd697eb51463568,
        type: 3}
      propertyPath: m_LocalEulerAnglesHint.x
      value: 0
      objectReference: {fileID: 0}
    - target: {fileID: 2925680300781658593, guid: 3a7727cbd6f87ec40bd697eb51463568,
        type: 3}
      propertyPath: m_LocalEulerAnglesHint.y
      value: 0
      objectReference: {fileID: 0}
    - target: {fileID: 2925680300781658593, guid: 3a7727cbd6f87ec40bd697eb51463568,
        type: 3}
      propertyPath: m_LocalEulerAnglesHint.z
      value: 0
      objectReference: {fileID: 0}
    - target: {fileID: 5030435849700586417, guid: 3a7727cbd6f87ec40bd697eb51463568,
        type: 3}
      propertyPath: m_Materials.Array.data[1]
      value: 
      objectReference: {fileID: 2100000, guid: 6d1d5157282484a479ac8ea43a50404d, type: 2}
    - target: {fileID: 5030435849700586417, guid: 3a7727cbd6f87ec40bd697eb51463568,
        type: 3}
      propertyPath: m_Materials.Array.data[0]
      value: 
      objectReference: {fileID: 2100000, guid: 00dce9b941577ae4aaa029cef0f30bcc, type: 2}
    m_RemovedComponents: []
  m_SourcePrefab: {fileID: 100100000, guid: 3a7727cbd6f87ec40bd697eb51463568, type: 3}
