%YAML 1.1
%TAG !u! tag:unity3d.com,2011:
--- !u!1001 &6158195603917363487
PrefabInstance:
  m_ObjectHideFlags: 0
  serializedVersion: 2
  m_Modification:
    m_TransformParent: {fileID: 0}
    m_Modifications:
    - target: {fileID: 4142665998792979969, guid: bf9776d4497bbe643a2fe66e7abba920,
        type: 3}
      propertyPath: m_Name
      value: PRF_Window02 Purple Variant
      objectReference: {fileID: 0}
    - target: {fileID: 5000146336573809189, guid: bf9776d4497bbe643a2fe66e7abba920,
        type: 3}
      propertyPath: m_LocalPosition.x
      value: 0
      objectReference: {fileID: 0}
    - target: {fileID: 5000146336573809189, guid: bf9776d4497bbe643a2fe66e7abba920,
        type: 3}
      propertyPath: m_LocalPosition.y
      value: 0
      objectReference: {fileID: 0}
    - target: {fileID: 5000146336573809189, guid: bf9776d4497bbe643a2fe66e7abba920,
        type: 3}
      propertyPath: m_LocalPosition.z
      value: 0
      objectReference: {fileID: 0}
    - target: {fileID: 5000146336573809189, guid: bf9776d4497bbe643a2fe66e7abba920,
        type: 3}
      propertyPath: m_LocalRotation.x
      value: 0
      objectReference: {fileID: 0}
    - target: {fileID: 5000146336573809189, guid: bf9776d4497bbe643a2fe66e7abba920,
        type: 3}
      propertyPath: m_LocalRotation.y
      value: 0
      objectReference: {fileID: 0}
    - target: {fileID: 5000146336573809189, guid: bf9776d4497bbe643a2fe66e7abba920,
        type: 3}
      propertyPath: m_LocalRotation.z
      value: 0
      objectReference: {fileID: 0}
    - target: {fileID: 5000146336573809189, guid: bf9776d4497bbe643a2fe66e7abba920,
        type: 3}
      propertyPath: m_LocalRotation.w
      value: 1
      objectReference: {fileID: 0}
    - target: {fileID: 5000146336573809189, guid: bf9776d4497bbe643a2fe66e7abba920,
        type: 3}
      propertyPath: m_RootOrder
      value: 0
      objectReference: {fileID: 0}
    - target: {fileID: 5000146336573809189, guid: bf9776d4497bbe643a2fe66e7abba920,
        type: 3}
      propertyPath: m_LocalEulerAnglesHint.x
      value: 0
      objectReference: {fileID: 0}
    - target: {fileID: 5000146336573809189, guid: bf9776d4497bbe643a2fe66e7abba920,
        type: 3}
      propertyPath: m_LocalEulerAnglesHint.y
      value: 0
      objectReference: {fileID: 0}
    - target: {fileID: 5000146336573809189, guid: bf9776d4497bbe643a2fe66e7abba920,
        type: 3}
      propertyPath: m_LocalEulerAnglesHint.z
      value: 0
      objectReference: {fileID: 0}
    - target: {fileID: 3101683945618437911, guid: bf9776d4497bbe643a2fe66e7abba920,
        type: 3}
      propertyPath: m_Materials.Array.data[1]
      value: 
      objectReference: {fileID: 2100000, guid: 6d1d5157282484a479ac8ea43a50404d, type: 2}
    - target: {fileID: 3101683945618437911, guid: bf9776d4497bbe643a2fe66e7abba920,
        type: 3}
      propertyPath: m_Materials.Array.data[0]
      value: 
      objectReference: {fileID: 2100000, guid: 00dce9b941577ae4aaa029cef0f30bcc, type: 2}
    m_RemovedComponents: []
  m_SourcePrefab: {fileID: 100100000, guid: bf9776d4497bbe643a2fe66e7abba920, type: 3}
