%YAML 1.1
%TAG !u! tag:unity3d.com,2011:
--- !u!1001 &3959950614173834122
PrefabInstance:
  m_ObjectHideFlags: 0
  serializedVersion: 2
  m_Modification:
    m_TransformParent: {fileID: 0}
    m_Modifications:
    - target: {fileID: 1882461051, guid: 872300177584d3640a89dffa907ac781, type: 3}
      propertyPath: m_Name
      value: MDL_Module05 Purple Variant
      objectReference: {fileID: 0}
    - target: {fileID: 1882461052, guid: 872300177584d3640a89dffa907ac781, type: 3}
      propertyPath: m_LocalPosition.x
      value: 0
      objectReference: {fileID: 0}
    - target: {fileID: 1882461052, guid: 872300177584d3640a89dffa907ac781, type: 3}
      propertyPath: m_LocalPosition.y
      value: 0
      objectReference: {fileID: 0}
    - target: {fileID: 1882461052, guid: 872300177584d3640a89dffa907ac781, type: 3}
      propertyPath: m_LocalPosition.z
      value: 12
      objectReference: {fileID: 0}
    - target: {fileID: 1882461052, guid: 872300177584d3640a89dffa907ac781, type: 3}
      propertyPath: m_LocalRotation.x
      value: -0.49991274
      objectReference: {fileID: 0}
    - target: {fileID: 1882461052, guid: 872300177584d3640a89dffa907ac781, type: 3}
      propertyPath: m_LocalRotation.y
      value: 0.50008726
      objectReference: {fileID: 0}
    - target: {fileID: 1882461052, guid: 872300177584d3640a89dffa907ac781, type: 3}
      propertyPath: m_LocalRotation.z
      value: 0.49991274
      objectReference: {fileID: 0}
    - target: {fileID: 1882461052, guid: 872300177584d3640a89dffa907ac781, type: 3}
      propertyPath: m_LocalRotation.w
      value: 0.50008726
      objectReference: {fileID: 0}
    - target: {fileID: 1882461052, guid: 872300177584d3640a89dffa907ac781, type: 3}
      propertyPath: m_RootOrder
      value: 0
      objectReference: {fileID: 0}
    - target: {fileID: 1882461052, guid: 872300177584d3640a89dffa907ac781, type: 3}
      propertyPath: m_LocalEulerAnglesHint.x
      value: -89.98
      objectReference: {fileID: 0}
    - target: {fileID: 1882461052, guid: 872300177584d3640a89dffa907ac781, type: 3}
      propertyPath: m_LocalEulerAnglesHint.y
      value: 90
      objectReference: {fileID: 0}
    - target: {fileID: 1882461052, guid: 872300177584d3640a89dffa907ac781, type: 3}
      propertyPath: m_LocalEulerAnglesHint.z
      value: 0
      objectReference: {fileID: 0}
    - target: {fileID: 1882461053, guid: 872300177584d3640a89dffa907ac781, type: 3}
      propertyPath: m_Materials.Array.data[1]
      value: 
      objectReference: {fileID: 2100000, guid: ad9b3322356c7be4196ecbbe38e963c5, type: 2}
    - target: {fileID: 1882461053, guid: 872300177584d3640a89dffa907ac781, type: 3}
      propertyPath: m_Materials.Array.data[0]
      value: 
      objectReference: {fileID: 2100000, guid: b2b24e3756bac8f4d975753571ed8d22, type: 2}
    m_RemovedComponents: []
  m_SourcePrefab: {fileID: 100100000, guid: 872300177584d3640a89dffa907ac781, type: 3}
