%YAML 1.1
%TAG !u! tag:unity3d.com,2011:
--- !u!1001 &8843182316764736493
PrefabInstance:
  m_ObjectHideFlags: 0
  serializedVersion: 2
  m_Modification:
    m_TransformParent: {fileID: 0}
    m_Modifications:
    - target: {fileID: 1904869287, guid: 1b27a6c4934533041b7e4eb5814f13c7, type: 3}
      propertyPath: m_Name
      value: MDL_Module01 Purple Variant
      objectReference: {fileID: 0}
    - target: {fileID: 1904869288, guid: 1b27a6c4934533041b7e4eb5814f13c7, type: 3}
      propertyPath: m_LocalPosition.x
      value: 12
      objectReference: {fileID: 0}
    - target: {fileID: 1904869288, guid: 1b27a6c4934533041b7e4eb5814f13c7, type: 3}
      propertyPath: m_LocalPosition.y
      value: 0
      objectReference: {fileID: 0}
    - target: {fileID: 1904869288, guid: 1b27a6c4934533041b7e4eb5814f13c7, type: 3}
      propertyPath: m_LocalPosition.z
      value: 12
      objectReference: {fileID: 0}
    - target: {fileID: 1904869288, guid: 1b27a6c4934533041b7e4eb5814f13c7, type: 3}
      propertyPath: m_LocalRotation.x
      value: -0.7069834
      objectReference: {fileID: 0}
    - target: {fileID: 1904869288, guid: 1b27a6c4934533041b7e4eb5814f13c7, type: 3}
      propertyPath: m_LocalRotation.y
      value: 0
      objectReference: {fileID: 0}
    - target: {fileID: 1904869288, guid: 1b27a6c4934533041b7e4eb5814f13c7, type: 3}
      propertyPath: m_LocalRotation.z
      value: 0
      objectReference: {fileID: 0}
    - target: {fileID: 1904869288, guid: 1b27a6c4934533041b7e4eb5814f13c7, type: 3}
      propertyPath: m_LocalRotation.w
      value: 0.7072302
      objectReference: {fileID: 0}
    - target: {fileID: 1904869288, guid: 1b27a6c4934533041b7e4eb5814f13c7, type: 3}
      propertyPath: m_RootOrder
      value: 0
      objectReference: {fileID: 0}
    - target: {fileID: 1904869288, guid: 1b27a6c4934533041b7e4eb5814f13c7, type: 3}
      propertyPath: m_LocalEulerAnglesHint.x
      value: -89.98
      objectReference: {fileID: 0}
    - target: {fileID: 1904869288, guid: 1b27a6c4934533041b7e4eb5814f13c7, type: 3}
      propertyPath: m_LocalEulerAnglesHint.y
      value: 0
      objectReference: {fileID: 0}
    - target: {fileID: 1904869288, guid: 1b27a6c4934533041b7e4eb5814f13c7, type: 3}
      propertyPath: m_LocalEulerAnglesHint.z
      value: 0
      objectReference: {fileID: 0}
    - target: {fileID: 1904869289, guid: 1b27a6c4934533041b7e4eb5814f13c7, type: 3}
      propertyPath: m_Materials.Array.data[1]
      value: 
      objectReference: {fileID: 2100000, guid: ad9b3322356c7be4196ecbbe38e963c5, type: 2}
    - target: {fileID: 1904869289, guid: 1b27a6c4934533041b7e4eb5814f13c7, type: 3}
      propertyPath: m_Materials.Array.data[2]
      value: 
      objectReference: {fileID: 2100000, guid: 02c8c5afcaf323b4380c6cca90de5121, type: 2}
    - target: {fileID: 1904869289, guid: 1b27a6c4934533041b7e4eb5814f13c7, type: 3}
      propertyPath: m_Materials.Array.data[0]
      value: 
      objectReference: {fileID: 2100000, guid: b2b24e3756bac8f4d975753571ed8d22, type: 2}
    m_RemovedComponents: []
  m_SourcePrefab: {fileID: 100100000, guid: 1b27a6c4934533041b7e4eb5814f13c7, type: 3}
