%YAML 1.1
%TAG !u! tag:unity3d.com,2011:
--- !u!114 &11400000
MonoBehaviour:
  m_ObjectHideFlags: 0
  m_CorrespondingSourceObject: {fileID: 0}
  m_PrefabInstance: {fileID: 0}
  m_PrefabAsset: {fileID: 0}
  m_GameObject: {fileID: 0}
  m_Enabled: 1
  m_EditorHideFlags: 0
  m_Script: {fileID: 11500000, guid: 04bb19cf8fcb809438e5f90756f4c98d, type: 3}
  m_Name: JogarOvosDebug
  m_EditorClassIdentifier: 
  objectiveName: JogarOvosNPC
  objectiveDescription: Jogue ovos nos NPCs
  canLoseProgressAfterCompletion: 0
  objectiveType: 1
  CounterGoal: 3
  counterCurrentProgress: 0
  ObjectiveHasCompleted: 1
