%YAML 1.1
%TAG !u! tag:unity3d.com,2011:
--- !u!1001 &1147729506093358114
PrefabInstance:
  m_ObjectHideFlags: 0
  serializedVersion: 2
  m_Modification:
    m_TransformParent: {fileID: 0}
    m_Modifications:
    - target: {fileID: 2049690151376193208, guid: 1b2d2969386fe874fa31e9cf310c3f46,
        type: 3}
      propertyPath: m_Name
      value: PRF_Window02 Green Variant
      objectReference: {fileID: 0}
    - target: {fileID: 6946894827769434780, guid: 1b2d2969386fe874fa31e9cf310c3f46,
        type: 3}
      propertyPath: m_LocalPosition.x
      value: -0.5
      objectReference: {fileID: 0}
    - target: {fileID: 6946894827769434780, guid: 1b2d2969386fe874fa31e9cf310c3f46,
        type: 3}
      propertyPath: m_LocalPosition.y
      value: 0
      objectReference: {fileID: 0}
    - target: {fileID: 6946894827769434780, guid: 1b2d2969386fe874fa31e9cf310c3f46,
        type: 3}
      propertyPath: m_LocalPosition.z
      value: -3
      objectReference: {fileID: 0}
    - target: {fileID: 6946894827769434780, guid: 1b2d2969386fe874fa31e9cf310c3f46,
        type: 3}
      propertyPath: m_LocalRotation.x
      value: -0.7071068
      objectReference: {fileID: 0}
    - target: {fileID: 6946894827769434780, guid: 1b2d2969386fe874fa31e9cf310c3f46,
        type: 3}
      propertyPath: m_LocalRotation.y
      value: -0
      objectReference: {fileID: 0}
    - target: {fileID: 6946894827769434780, guid: 1b2d2969386fe874fa31e9cf310c3f46,
        type: 3}
      propertyPath: m_LocalRotation.z
      value: -0
      objectReference: {fileID: 0}
    - target: {fileID: 6946894827769434780, guid: 1b2d2969386fe874fa31e9cf310c3f46,
        type: 3}
      propertyPath: m_LocalRotation.w
      value: 0.7071067
      objectReference: {fileID: 0}
    - target: {fileID: 6946894827769434780, guid: 1b2d2969386fe874fa31e9cf310c3f46,
        type: 3}
      propertyPath: m_RootOrder
      value: 0
      objectReference: {fileID: 0}
    - target: {fileID: 6946894827769434780, guid: 1b2d2969386fe874fa31e9cf310c3f46,
        type: 3}
      propertyPath: m_LocalEulerAnglesHint.x
      value: 0
      objectReference: {fileID: 0}
    - target: {fileID: 6946894827769434780, guid: 1b2d2969386fe874fa31e9cf310c3f46,
        type: 3}
      propertyPath: m_LocalEulerAnglesHint.y
      value: 0
      objectReference: {fileID: 0}
    - target: {fileID: 6946894827769434780, guid: 1b2d2969386fe874fa31e9cf310c3f46,
        type: 3}
      propertyPath: m_LocalEulerAnglesHint.z
      value: 0
      objectReference: {fileID: 0}
    - target: {fileID: 6946894827769434780, guid: 1b2d2969386fe874fa31e9cf310c3f46,
        type: 3}
      propertyPath: m_LocalScale.y
      value: 99.99997
      objectReference: {fileID: 0}
    - target: {fileID: 6946894827769434780, guid: 1b2d2969386fe874fa31e9cf310c3f46,
        type: 3}
      propertyPath: m_LocalScale.z
      value: 99.99997
      objectReference: {fileID: 0}
    - target: {fileID: 1010820135249741742, guid: 1b2d2969386fe874fa31e9cf310c3f46,
        type: 3}
      propertyPath: m_Materials.Array.data[1]
      value: 
      objectReference: {fileID: 2100000, guid: e5a39f61aa5a2ce4589e5746b9972d7c, type: 2}
    - target: {fileID: 1010820135249741742, guid: 1b2d2969386fe874fa31e9cf310c3f46,
        type: 3}
      propertyPath: m_Materials.Array.data[0]
      value: 
      objectReference: {fileID: 2100000, guid: 85289ee050b2f4142a93547a924bcadf, type: 2}
    m_RemovedComponents: []
  m_SourcePrefab: {fileID: 100100000, guid: 1b2d2969386fe874fa31e9cf310c3f46, type: 3}
