%YAML 1.1
%TAG !u! tag:unity3d.com,2011:
--- !u!1001 &1998729575717582328
PrefabInstance:
  m_ObjectHideFlags: 0
  serializedVersion: 2
  m_Modification:
    m_TransformParent: {fileID: 0}
    m_Modifications:
    - target: {fileID: 4344379849522309184, guid: eebd06e1d31ff484cbc34add42f07eb0,
        type: 3}
      propertyPath: m_Name
      value: PRF_Window01 Blue Variant
      objectReference: {fileID: 0}
    - target: {fileID: 1674347035187830719, guid: eebd06e1d31ff484cbc34add42f07eb0,
        type: 3}
      propertyPath: m_LocalPosition.x
      value: 2.5
      objectReference: {fileID: 0}
    - target: {fileID: 1674347035187830719, guid: eebd06e1d31ff484cbc34add42f07eb0,
        type: 3}
      propertyPath: m_LocalPosition.y
      value: 0
      objectReference: {fileID: 0}
    - target: {fileID: 1674347035187830719, guid: eebd06e1d31ff484cbc34add42f07eb0,
        type: 3}
      propertyPath: m_LocalPosition.z
      value: -3
      objectReference: {fileID: 0}
    - target: {fileID: 1674347035187830719, guid: eebd06e1d31ff484cbc34add42f07eb0,
        type: 3}
      propertyPath: m_LocalRotation.x
      value: -0.7071068
      objectReference: {fileID: 0}
    - target: {fileID: 1674347035187830719, guid: eebd06e1d31ff484cbc34add42f07eb0,
        type: 3}
      propertyPath: m_LocalRotation.y
      value: -0
      objectReference: {fileID: 0}
    - target: {fileID: 1674347035187830719, guid: eebd06e1d31ff484cbc34add42f07eb0,
        type: 3}
      propertyPath: m_LocalRotation.z
      value: -0
      objectReference: {fileID: 0}
    - target: {fileID: 1674347035187830719, guid: eebd06e1d31ff484cbc34add42f07eb0,
        type: 3}
      propertyPath: m_LocalRotation.w
      value: 0.7071067
      objectReference: {fileID: 0}
    - target: {fileID: 1674347035187830719, guid: eebd06e1d31ff484cbc34add42f07eb0,
        type: 3}
      propertyPath: m_RootOrder
      value: 0
      objectReference: {fileID: 0}
    - target: {fileID: 1674347035187830719, guid: eebd06e1d31ff484cbc34add42f07eb0,
        type: 3}
      propertyPath: m_LocalEulerAnglesHint.x
      value: 0
      objectReference: {fileID: 0}
    - target: {fileID: 1674347035187830719, guid: eebd06e1d31ff484cbc34add42f07eb0,
        type: 3}
      propertyPath: m_LocalEulerAnglesHint.y
      value: 0
      objectReference: {fileID: 0}
    - target: {fileID: 1674347035187830719, guid: eebd06e1d31ff484cbc34add42f07eb0,
        type: 3}
      propertyPath: m_LocalEulerAnglesHint.z
      value: 0
      objectReference: {fileID: 0}
    - target: {fileID: 1674347035187830719, guid: eebd06e1d31ff484cbc34add42f07eb0,
        type: 3}
      propertyPath: m_LocalScale.y
      value: 99.99997
      objectReference: {fileID: 0}
    - target: {fileID: 1674347035187830719, guid: eebd06e1d31ff484cbc34add42f07eb0,
        type: 3}
      propertyPath: m_LocalScale.z
      value: 99.99997
      objectReference: {fileID: 0}
    - target: {fileID: 8820811945593572847, guid: eebd06e1d31ff484cbc34add42f07eb0,
        type: 3}
      propertyPath: m_Materials.Array.size
      value: 3
      objectReference: {fileID: 0}
    - target: {fileID: 8820811945593572847, guid: eebd06e1d31ff484cbc34add42f07eb0,
        type: 3}
      propertyPath: m_Materials.Array.data[3]
      value: 
      objectReference: {fileID: 2100000, guid: 52d60bbb90d7a7249ae3d4dadff1f0f8, type: 2}
    - target: {fileID: 8820811945593572847, guid: eebd06e1d31ff484cbc34add42f07eb0,
        type: 3}
      propertyPath: m_Materials.Array.data[0]
      value: 
      objectReference: {fileID: 2100000, guid: 5a9f90e2d2680ed438101b9d5e31e0a3, type: 2}
    - target: {fileID: 8820811945593572847, guid: eebd06e1d31ff484cbc34add42f07eb0,
        type: 3}
      propertyPath: m_Materials.Array.data[1]
      value: 
      objectReference: {fileID: 2100000, guid: 8844d2cd676b3bc4ea9205be17d1bd62, type: 2}
    - target: {fileID: 8820811945593572847, guid: eebd06e1d31ff484cbc34add42f07eb0,
        type: 3}
      propertyPath: m_Materials.Array.data[2]
      value: 
      objectReference: {fileID: 2100000, guid: 52d60bbb90d7a7249ae3d4dadff1f0f8, type: 2}
    m_RemovedComponents: []
  m_SourcePrefab: {fileID: 100100000, guid: eebd06e1d31ff484cbc34add42f07eb0, type: 3}
