%YAML 1.1
%TAG !u! tag:unity3d.com,2011:
--- !u!1001 &4662789563723397701
PrefabInstance:
  m_ObjectHideFlags: 0
  serializedVersion: 2
  m_Modification:
    m_TransformParent: {fileID: 0}
    m_Modifications:
    - target: {fileID: 1410431846, guid: 2c20f5428133a0d4b95a1e5f15063a82, type: 3}
      propertyPath: m_Name
      value: MDL_Module06
      objectReference: {fileID: 0}
    - target: {fileID: 1410431847, guid: 2c20f5428133a0d4b95a1e5f15063a82, type: 3}
      propertyPath: m_LocalPosition.x
      value: -12
      objectReference: {fileID: 0}
    - target: {fileID: 1410431847, guid: 2c20f5428133a0d4b95a1e5f15063a82, type: 3}
      propertyPath: m_LocalPosition.y
      value: 0
      objectReference: {fileID: 0}
    - target: {fileID: 1410431847, guid: 2c20f5428133a0d4b95a1e5f15063a82, type: 3}
      propertyPath: m_LocalPosition.z
      value: 12
      objectReference: {fileID: 0}
    - target: {fileID: 1410431847, guid: 2c20f5428133a0d4b95a1e5f15063a82, type: 3}
      propertyPath: m_LocalRotation.x
      value: -0.7071068
      objectReference: {fileID: 0}
    - target: {fileID: 1410431847, guid: 2c20f5428133a0d4b95a1e5f15063a82, type: 3}
      propertyPath: m_LocalRotation.y
      value: -0
      objectReference: {fileID: 0}
    - target: {fileID: 1410431847, guid: 2c20f5428133a0d4b95a1e5f15063a82, type: 3}
      propertyPath: m_LocalRotation.z
      value: -0
      objectReference: {fileID: 0}
    - target: {fileID: 1410431847, guid: 2c20f5428133a0d4b95a1e5f15063a82, type: 3}
      propertyPath: m_LocalRotation.w
      value: 0.7071067
      objectReference: {fileID: 0}
    - target: {fileID: 1410431847, guid: 2c20f5428133a0d4b95a1e5f15063a82, type: 3}
      propertyPath: m_RootOrder
      value: 0
      objectReference: {fileID: 0}
    - target: {fileID: 1410431847, guid: 2c20f5428133a0d4b95a1e5f15063a82, type: 3}
      propertyPath: m_LocalEulerAnglesHint.x
      value: 0
      objectReference: {fileID: 0}
    - target: {fileID: 1410431847, guid: 2c20f5428133a0d4b95a1e5f15063a82, type: 3}
      propertyPath: m_LocalEulerAnglesHint.y
      value: 0
      objectReference: {fileID: 0}
    - target: {fileID: 1410431847, guid: 2c20f5428133a0d4b95a1e5f15063a82, type: 3}
      propertyPath: m_LocalEulerAnglesHint.z
      value: 0
      objectReference: {fileID: 0}
    - target: {fileID: 719951522629943928, guid: 2c20f5428133a0d4b95a1e5f15063a82,
        type: 3}
      propertyPath: m_Materials.Array.data[2]
      value: 
      objectReference: {fileID: 2100000, guid: 854ff72520e149c4baba2de2c0ec7ab8, type: 2}
    - target: {fileID: 719951522629943928, guid: 2c20f5428133a0d4b95a1e5f15063a82,
        type: 3}
      propertyPath: m_Materials.Array.data[1]
      value: 
      objectReference: {fileID: 2100000, guid: badc7b46ebea199489732ba69de5a4be, type: 2}
    - target: {fileID: 719951522629943928, guid: 2c20f5428133a0d4b95a1e5f15063a82,
        type: 3}
      propertyPath: m_Materials.Array.data[0]
      value: 
      objectReference: {fileID: 2100000, guid: db236278d9be98543a39d451dde4ee6d, type: 2}
    m_RemovedComponents: []
  m_SourcePrefab: {fileID: 100100000, guid: 2c20f5428133a0d4b95a1e5f15063a82, type: 3}
