%YAML 1.1
%TAG !u! tag:unity3d.com,2011:
--- !u!1001 &3102174430438531386
PrefabInstance:
  m_ObjectHideFlags: 0
  serializedVersion: 2
  m_Modification:
    m_TransformParent: {fileID: 0}
    m_Modifications:
    - target: {fileID: 1413140390080993946, guid: 6b674d0883fbc22458120313d5384ef3,
        type: 3}
      propertyPath: m_Name
      value: PRF_Window02 Orange Variant
      objectReference: {fileID: 0}
    - target: {fileID: 8036068724221923006, guid: 6b674d0883fbc22458120313d5384ef3,
        type: 3}
      propertyPath: m_LocalPosition.x
      value: -0.5
      objectReference: {fileID: 0}
    - target: {fileID: 8036068724221923006, guid: 6b674d0883fbc22458120313d5384ef3,
        type: 3}
      propertyPath: m_LocalPosition.y
      value: 0
      objectReference: {fileID: 0}
    - target: {fileID: 8036068724221923006, guid: 6b674d0883fbc22458120313d5384ef3,
        type: 3}
      propertyPath: m_LocalPosition.z
      value: -3
      objectReference: {fileID: 0}
    - target: {fileID: 8036068724221923006, guid: 6b674d0883fbc22458120313d5384ef3,
        type: 3}
      propertyPath: m_LocalRotation.x
      value: -0.7071068
      objectReference: {fileID: 0}
    - target: {fileID: 8036068724221923006, guid: 6b674d0883fbc22458120313d5384ef3,
        type: 3}
      propertyPath: m_LocalRotation.y
      value: -0
      objectReference: {fileID: 0}
    - target: {fileID: 8036068724221923006, guid: 6b674d0883fbc22458120313d5384ef3,
        type: 3}
      propertyPath: m_LocalRotation.z
      value: -0
      objectReference: {fileID: 0}
    - target: {fileID: 8036068724221923006, guid: 6b674d0883fbc22458120313d5384ef3,
        type: 3}
      propertyPath: m_LocalRotation.w
      value: 0.7071067
      objectReference: {fileID: 0}
    - target: {fileID: 8036068724221923006, guid: 6b674d0883fbc22458120313d5384ef3,
        type: 3}
      propertyPath: m_RootOrder
      value: 0
      objectReference: {fileID: 0}
    - target: {fileID: 8036068724221923006, guid: 6b674d0883fbc22458120313d5384ef3,
        type: 3}
      propertyPath: m_LocalEulerAnglesHint.x
      value: 0
      objectReference: {fileID: 0}
    - target: {fileID: 8036068724221923006, guid: 6b674d0883fbc22458120313d5384ef3,
        type: 3}
      propertyPath: m_LocalEulerAnglesHint.y
      value: 0
      objectReference: {fileID: 0}
    - target: {fileID: 8036068724221923006, guid: 6b674d0883fbc22458120313d5384ef3,
        type: 3}
      propertyPath: m_LocalEulerAnglesHint.z
      value: 0
      objectReference: {fileID: 0}
    - target: {fileID: 8036068724221923006, guid: 6b674d0883fbc22458120313d5384ef3,
        type: 3}
      propertyPath: m_LocalScale.y
      value: 99.99997
      objectReference: {fileID: 0}
    - target: {fileID: 8036068724221923006, guid: 6b674d0883fbc22458120313d5384ef3,
        type: 3}
      propertyPath: m_LocalScale.z
      value: 99.99997
      objectReference: {fileID: 0}
    - target: {fileID: 138110106833410956, guid: 6b674d0883fbc22458120313d5384ef3,
        type: 3}
      propertyPath: m_Materials.Array.data[1]
      value: 
      objectReference: {fileID: 2100000, guid: 79d5ba7255480ca41bce686c28335550, type: 2}
    - target: {fileID: 138110106833410956, guid: 6b674d0883fbc22458120313d5384ef3,
        type: 3}
      propertyPath: m_Materials.Array.data[0]
      value: 
      objectReference: {fileID: 2100000, guid: 1539c4b95c15281469fd82940e7617ca, type: 2}
    m_RemovedComponents: []
  m_SourcePrefab: {fileID: 100100000, guid: 6b674d0883fbc22458120313d5384ef3, type: 3}
