%YAML 1.1
%TAG !u! tag:unity3d.com,2011:
--- !u!1001 &7034284844362182031
PrefabInstance:
  m_ObjectHideFlags: 0
  serializedVersion: 2
  m_Modification:
    m_TransformParent: {fileID: 0}
    m_Modifications:
    - target: {fileID: 5371546741974315676, guid: ed9f24be5569cd048b7c79a68a5ceb61,
        type: 3}
      propertyPath: m_Name
      value: PRF_Window03 Pink Variant
      objectReference: {fileID: 0}
    - target: {fileID: 2970189307036454175, guid: ed9f24be5569cd048b7c79a68a5ceb61,
        type: 3}
      propertyPath: m_LocalPosition.x
      value: 1
      objectReference: {fileID: 0}
    - target: {fileID: 2970189307036454175, guid: ed9f24be5569cd048b7c79a68a5ceb61,
        type: 3}
      propertyPath: m_LocalPosition.y
      value: 0
      objectReference: {fileID: 0}
    - target: {fileID: 2970189307036454175, guid: ed9f24be5569cd048b7c79a68a5ceb61,
        type: 3}
      propertyPath: m_LocalPosition.z
      value: -3
      objectReference: {fileID: 0}
    - target: {fileID: 2970189307036454175, guid: ed9f24be5569cd048b7c79a68a5ceb61,
        type: 3}
      propertyPath: m_LocalRotation.x
      value: -0.7071068
      objectReference: {fileID: 0}
    - target: {fileID: 2970189307036454175, guid: ed9f24be5569cd048b7c79a68a5ceb61,
        type: 3}
      propertyPath: m_LocalRotation.y
      value: -0
      objectReference: {fileID: 0}
    - target: {fileID: 2970189307036454175, guid: ed9f24be5569cd048b7c79a68a5ceb61,
        type: 3}
      propertyPath: m_LocalRotation.z
      value: -0
      objectReference: {fileID: 0}
    - target: {fileID: 2970189307036454175, guid: ed9f24be5569cd048b7c79a68a5ceb61,
        type: 3}
      propertyPath: m_LocalRotation.w
      value: 0.7071067
      objectReference: {fileID: 0}
    - target: {fileID: 2970189307036454175, guid: ed9f24be5569cd048b7c79a68a5ceb61,
        type: 3}
      propertyPath: m_RootOrder
      value: 0
      objectReference: {fileID: 0}
    - target: {fileID: 2970189307036454175, guid: ed9f24be5569cd048b7c79a68a5ceb61,
        type: 3}
      propertyPath: m_LocalEulerAnglesHint.x
      value: 0
      objectReference: {fileID: 0}
    - target: {fileID: 2970189307036454175, guid: ed9f24be5569cd048b7c79a68a5ceb61,
        type: 3}
      propertyPath: m_LocalEulerAnglesHint.y
      value: 0
      objectReference: {fileID: 0}
    - target: {fileID: 2970189307036454175, guid: ed9f24be5569cd048b7c79a68a5ceb61,
        type: 3}
      propertyPath: m_LocalEulerAnglesHint.z
      value: 0
      objectReference: {fileID: 0}
    - target: {fileID: 7650569319529194071, guid: ed9f24be5569cd048b7c79a68a5ceb61,
        type: 3}
      propertyPath: m_Materials.Array.data[1]
      value: 
      objectReference: {fileID: 2100000, guid: 8f47967af85152b47809c0b3bf608a84, type: 2}
    - target: {fileID: 7650569319529194071, guid: ed9f24be5569cd048b7c79a68a5ceb61,
        type: 3}
      propertyPath: m_Materials.Array.data[0]
      value: 
      objectReference: {fileID: 2100000, guid: 14d1915a1a30ef54895196d102f4ba08, type: 2}
    m_RemovedComponents: []
  m_SourcePrefab: {fileID: 100100000, guid: ed9f24be5569cd048b7c79a68a5ceb61, type: 3}
