%YAML 1.1
%TAG !u! tag:unity3d.com,2011:
--- !u!1001 &6941280758250597043
PrefabInstance:
  m_ObjectHideFlags: 0
  serializedVersion: 2
  m_Modification:
    m_TransformParent: {fileID: 0}
    m_Modifications:
    - target: {fileID: 1403269053588760567, guid: 8b9ca9a7ebbd2654ebe3f01dedc5cacb,
        type: 3}
      propertyPath: m_Name
      value: PRF_Chimney Green Variant
      objectReference: {fileID: 0}
    - target: {fileID: 8877870167477624023, guid: 8b9ca9a7ebbd2654ebe3f01dedc5cacb,
        type: 3}
      propertyPath: m_LocalPosition.x
      value: 4
      objectReference: {fileID: 0}
    - target: {fileID: 8877870167477624023, guid: 8b9ca9a7ebbd2654ebe3f01dedc5cacb,
        type: 3}
      propertyPath: m_LocalPosition.y
      value: 0
      objectReference: {fileID: 0}
    - target: {fileID: 8877870167477624023, guid: 8b9ca9a7ebbd2654ebe3f01dedc5cacb,
        type: 3}
      propertyPath: m_LocalPosition.z
      value: -3
      objectReference: {fileID: 0}
    - target: {fileID: 8877870167477624023, guid: 8b9ca9a7ebbd2654ebe3f01dedc5cacb,
        type: 3}
      propertyPath: m_LocalRotation.x
      value: -0.7071068
      objectReference: {fileID: 0}
    - target: {fileID: 8877870167477624023, guid: 8b9ca9a7ebbd2654ebe3f01dedc5cacb,
        type: 3}
      propertyPath: m_LocalRotation.y
      value: -0
      objectReference: {fileID: 0}
    - target: {fileID: 8877870167477624023, guid: 8b9ca9a7ebbd2654ebe3f01dedc5cacb,
        type: 3}
      propertyPath: m_LocalRotation.z
      value: -0
      objectReference: {fileID: 0}
    - target: {fileID: 8877870167477624023, guid: 8b9ca9a7ebbd2654ebe3f01dedc5cacb,
        type: 3}
      propertyPath: m_LocalRotation.w
      value: 0.7071067
      objectReference: {fileID: 0}
    - target: {fileID: 8877870167477624023, guid: 8b9ca9a7ebbd2654ebe3f01dedc5cacb,
        type: 3}
      propertyPath: m_RootOrder
      value: 0
      objectReference: {fileID: 0}
    - target: {fileID: 8877870167477624023, guid: 8b9ca9a7ebbd2654ebe3f01dedc5cacb,
        type: 3}
      propertyPath: m_LocalEulerAnglesHint.x
      value: 0
      objectReference: {fileID: 0}
    - target: {fileID: 8877870167477624023, guid: 8b9ca9a7ebbd2654ebe3f01dedc5cacb,
        type: 3}
      propertyPath: m_LocalEulerAnglesHint.y
      value: 0
      objectReference: {fileID: 0}
    - target: {fileID: 8877870167477624023, guid: 8b9ca9a7ebbd2654ebe3f01dedc5cacb,
        type: 3}
      propertyPath: m_LocalEulerAnglesHint.z
      value: 0
      objectReference: {fileID: 0}
    - target: {fileID: 3979597412410604168, guid: 8b9ca9a7ebbd2654ebe3f01dedc5cacb,
        type: 3}
      propertyPath: m_Materials.Array.data[1]
      value: 
      objectReference: {fileID: 2100000, guid: 5e527780088753f4ab98ae3e1fe444be, type: 2}
    - target: {fileID: 3979597412410604168, guid: 8b9ca9a7ebbd2654ebe3f01dedc5cacb,
        type: 3}
      propertyPath: m_Materials.Array.data[0]
      value: 
      objectReference: {fileID: 2100000, guid: 8d17caca41f3c1c4c810da990832e92b, type: 2}
    m_RemovedComponents: []
  m_SourcePrefab: {fileID: 100100000, guid: 8b9ca9a7ebbd2654ebe3f01dedc5cacb, type: 3}
