%YAML 1.1
%TAG !u! tag:unity3d.com,2011:
--- !u!1001 &2821906224648219763
PrefabInstance:
  m_ObjectHideFlags: 0
  serializedVersion: 2
  m_Modification:
    m_TransformParent: {fileID: 0}
    m_Modifications:
    - target: {fileID: 8786670906529708980, guid: 18a6fc4a1da9124448ffa1a0be0158a5,
        type: 3}
      propertyPath: m_Name
      value: PRF_Door01 Red Variant
      objectReference: {fileID: 0}
    - target: {fileID: 7753584161012046207, guid: 18a6fc4a1da9124448ffa1a0be0158a5,
        type: 3}
      propertyPath: m_LocalPosition.x
      value: 4
      objectReference: {fileID: 0}
    - target: {fileID: 7753584161012046207, guid: 18a6fc4a1da9124448ffa1a0be0158a5,
        type: 3}
      propertyPath: m_LocalPosition.y
      value: 0
      objectReference: {fileID: 0}
    - target: {fileID: 7753584161012046207, guid: 18a6fc4a1da9124448ffa1a0be0158a5,
        type: 3}
      propertyPath: m_LocalPosition.z
      value: -4
      objectReference: {fileID: 0}
    - target: {fileID: 7753584161012046207, guid: 18a6fc4a1da9124448ffa1a0be0158a5,
        type: 3}
      propertyPath: m_LocalRotation.x
      value: -0.7071068
      objectReference: {fileID: 0}
    - target: {fileID: 7753584161012046207, guid: 18a6fc4a1da9124448ffa1a0be0158a5,
        type: 3}
      propertyPath: m_LocalRotation.y
      value: -0
      objectReference: {fileID: 0}
    - target: {fileID: 7753584161012046207, guid: 18a6fc4a1da9124448ffa1a0be0158a5,
        type: 3}
      propertyPath: m_LocalRotation.z
      value: -0
      objectReference: {fileID: 0}
    - target: {fileID: 7753584161012046207, guid: 18a6fc4a1da9124448ffa1a0be0158a5,
        type: 3}
      propertyPath: m_LocalRotation.w
      value: 0.7071067
      objectReference: {fileID: 0}
    - target: {fileID: 7753584161012046207, guid: 18a6fc4a1da9124448ffa1a0be0158a5,
        type: 3}
      propertyPath: m_RootOrder
      value: 0
      objectReference: {fileID: 0}
    - target: {fileID: 7753584161012046207, guid: 18a6fc4a1da9124448ffa1a0be0158a5,
        type: 3}
      propertyPath: m_LocalEulerAnglesHint.x
      value: 0
      objectReference: {fileID: 0}
    - target: {fileID: 7753584161012046207, guid: 18a6fc4a1da9124448ffa1a0be0158a5,
        type: 3}
      propertyPath: m_LocalEulerAnglesHint.y
      value: 0
      objectReference: {fileID: 0}
    - target: {fileID: 7753584161012046207, guid: 18a6fc4a1da9124448ffa1a0be0158a5,
        type: 3}
      propertyPath: m_LocalEulerAnglesHint.z
      value: 0
      objectReference: {fileID: 0}
    - target: {fileID: 7753584161012046207, guid: 18a6fc4a1da9124448ffa1a0be0158a5,
        type: 3}
      propertyPath: m_LocalScale.y
      value: 99.99997
      objectReference: {fileID: 0}
    - target: {fileID: 7753584161012046207, guid: 18a6fc4a1da9124448ffa1a0be0158a5,
        type: 3}
      propertyPath: m_LocalScale.z
      value: 99.99997
      objectReference: {fileID: 0}
    - target: {fileID: 2239438021441346495, guid: 18a6fc4a1da9124448ffa1a0be0158a5,
        type: 3}
      propertyPath: m_Materials.Array.data[0]
      value: 
      objectReference: {fileID: 2100000, guid: c679242032d56cb498b7283af0645713, type: 2}
    - target: {fileID: 2239438021441346495, guid: 18a6fc4a1da9124448ffa1a0be0158a5,
        type: 3}
      propertyPath: m_Materials.Array.data[1]
      value: 
      objectReference: {fileID: 2100000, guid: 51f0eeacfbec042449d9293b870e801d, type: 2}
    m_RemovedComponents: []
  m_SourcePrefab: {fileID: 100100000, guid: 18a6fc4a1da9124448ffa1a0be0158a5, type: 3}
