%YAML 1.1
%TAG !u! tag:unity3d.com,2011:
--- !u!1001 &6801520435993417242
PrefabInstance:
  m_ObjectHideFlags: 0
  serializedVersion: 2
  m_Modification:
    m_TransformParent: {fileID: 0}
    m_Modifications:
    - target: {fileID: 468236112, guid: f25d5d3714e4e1f45a74b2d664f2b1f3, type: 3}
      propertyPath: m_Name
      value: MDL_Module04
      objectReference: {fileID: 0}
    - target: {fileID: 468236113, guid: f25d5d3714e4e1f45a74b2d664f2b1f3, type: 3}
      propertyPath: m_LocalPosition.x
      value: 0
      objectReference: {fileID: 0}
    - target: {fileID: 468236113, guid: f25d5d3714e4e1f45a74b2d664f2b1f3, type: 3}
      propertyPath: m_LocalPosition.y
      value: 0
      objectReference: {fileID: 0}
    - target: {fileID: 468236113, guid: f25d5d3714e4e1f45a74b2d664f2b1f3, type: 3}
      propertyPath: m_LocalPosition.z
      value: -12
      objectReference: {fileID: 0}
    - target: {fileID: 468236113, guid: f25d5d3714e4e1f45a74b2d664f2b1f3, type: 3}
      propertyPath: m_LocalRotation.x
      value: -0.7071068
      objectReference: {fileID: 0}
    - target: {fileID: 468236113, guid: f25d5d3714e4e1f45a74b2d664f2b1f3, type: 3}
      propertyPath: m_LocalRotation.y
      value: -0
      objectReference: {fileID: 0}
    - target: {fileID: 468236113, guid: f25d5d3714e4e1f45a74b2d664f2b1f3, type: 3}
      propertyPath: m_LocalRotation.z
      value: -0
      objectReference: {fileID: 0}
    - target: {fileID: 468236113, guid: f25d5d3714e4e1f45a74b2d664f2b1f3, type: 3}
      propertyPath: m_LocalRotation.w
      value: 0.7071067
      objectReference: {fileID: 0}
    - target: {fileID: 468236113, guid: f25d5d3714e4e1f45a74b2d664f2b1f3, type: 3}
      propertyPath: m_RootOrder
      value: 0
      objectReference: {fileID: 0}
    - target: {fileID: 468236113, guid: f25d5d3714e4e1f45a74b2d664f2b1f3, type: 3}
      propertyPath: m_LocalEulerAnglesHint.x
      value: 0
      objectReference: {fileID: 0}
    - target: {fileID: 468236113, guid: f25d5d3714e4e1f45a74b2d664f2b1f3, type: 3}
      propertyPath: m_LocalEulerAnglesHint.y
      value: 0
      objectReference: {fileID: 0}
    - target: {fileID: 468236113, guid: f25d5d3714e4e1f45a74b2d664f2b1f3, type: 3}
      propertyPath: m_LocalEulerAnglesHint.z
      value: 0
      objectReference: {fileID: 0}
    - target: {fileID: 468236114, guid: f25d5d3714e4e1f45a74b2d664f2b1f3, type: 3}
      propertyPath: m_Materials.Array.data[0]
      value: 
      objectReference: {fileID: 2100000, guid: a2f12d655109d98459aee6213f2d4f9d, type: 2}
    - target: {fileID: 468236114, guid: f25d5d3714e4e1f45a74b2d664f2b1f3, type: 3}
      propertyPath: m_Materials.Array.data[1]
      value: 
      objectReference: {fileID: 2100000, guid: bb2550e78468566449eee822cc8af6a4, type: 2}
    m_RemovedComponents: []
  m_SourcePrefab: {fileID: 100100000, guid: f25d5d3714e4e1f45a74b2d664f2b1f3, type: 3}
