%YAML 1.1
%TAG !u! tag:unity3d.com,2011:
--- !u!1001 &5806307243285877059
PrefabInstance:
  m_ObjectHideFlags: 0
  serializedVersion: 2
  m_Modification:
    m_TransformParent: {fileID: 0}
    m_Modifications:
    - target: {fileID: 1491265280, guid: 0ca0974d12fea31428ed20b5464b9760, type: 3}
      propertyPath: m_Name
      value: MDL_Module03 Haunted Variant
      objectReference: {fileID: 0}
    - target: {fileID: 1491265282, guid: 0ca0974d12fea31428ed20b5464b9760, type: 3}
      propertyPath: m_Materials.Array.data[0]
      value: 
      objectReference: {fileID: 2100000, guid: 6dfbfb050a72b0b419cfcc101c5b4317, type: 2}
    - target: {fileID: 1491265282, guid: 0ca0974d12fea31428ed20b5464b9760, type: 3}
      propertyPath: m_Materials.Array.data[1]
      value: 
      objectReference: {fileID: 2100000, guid: ab2786477757fbd43b771db2e605f7fc, type: 2}
    - target: {fileID: 1491265281, guid: 0ca0974d12fea31428ed20b5464b9760, type: 3}
      propertyPath: m_LocalPosition.x
      value: 0
      objectReference: {fileID: 0}
    - target: {fileID: 1491265281, guid: 0ca0974d12fea31428ed20b5464b9760, type: 3}
      propertyPath: m_LocalPosition.y
      value: 0
      objectReference: {fileID: 0}
    - target: {fileID: 1491265281, guid: 0ca0974d12fea31428ed20b5464b9760, type: 3}
      propertyPath: m_LocalPosition.z
      value: 0
      objectReference: {fileID: 0}
    - target: {fileID: 1491265281, guid: 0ca0974d12fea31428ed20b5464b9760, type: 3}
      propertyPath: m_LocalRotation.x
      value: -0.7071068
      objectReference: {fileID: 0}
    - target: {fileID: 1491265281, guid: 0ca0974d12fea31428ed20b5464b9760, type: 3}
      propertyPath: m_LocalRotation.y
      value: -0
      objectReference: {fileID: 0}
    - target: {fileID: 1491265281, guid: 0ca0974d12fea31428ed20b5464b9760, type: 3}
      propertyPath: m_LocalRotation.z
      value: -0
      objectReference: {fileID: 0}
    - target: {fileID: 1491265281, guid: 0ca0974d12fea31428ed20b5464b9760, type: 3}
      propertyPath: m_LocalRotation.w
      value: 0.7071067
      objectReference: {fileID: 0}
    - target: {fileID: 1491265281, guid: 0ca0974d12fea31428ed20b5464b9760, type: 3}
      propertyPath: m_RootOrder
      value: 0
      objectReference: {fileID: 0}
    - target: {fileID: 1491265281, guid: 0ca0974d12fea31428ed20b5464b9760, type: 3}
      propertyPath: m_LocalEulerAnglesHint.x
      value: 0
      objectReference: {fileID: 0}
    - target: {fileID: 1491265281, guid: 0ca0974d12fea31428ed20b5464b9760, type: 3}
      propertyPath: m_LocalEulerAnglesHint.y
      value: 0
      objectReference: {fileID: 0}
    - target: {fileID: 1491265281, guid: 0ca0974d12fea31428ed20b5464b9760, type: 3}
      propertyPath: m_LocalEulerAnglesHint.z
      value: 0
      objectReference: {fileID: 0}
    m_RemovedComponents: []
  m_SourcePrefab: {fileID: 100100000, guid: 0ca0974d12fea31428ed20b5464b9760, type: 3}
