%YAML 1.1
%TAG !u! tag:unity3d.com,2011:
--- !u!1001 &9054757748282750579
PrefabInstance:
  m_ObjectHideFlags: 0
  serializedVersion: 2
  m_Modification:
    m_TransformParent: {fileID: 0}
    m_Modifications:
    - target: {fileID: 1410431846, guid: 2c20f5428133a0d4b95a1e5f15063a82, type: 3}
      propertyPath: m_Name
      value: MDL_Module06 Haunted Variant
      objectReference: {fileID: 0}
    - target: {fileID: 719951522629943928, guid: 2c20f5428133a0d4b95a1e5f15063a82,
        type: 3}
      propertyPath: m_Materials.Array.data[0]
      value: 
      objectReference: {fileID: 2100000, guid: 6dfbfb050a72b0b419cfcc101c5b4317, type: 2}
    - target: {fileID: 719951522629943928, guid: 2c20f5428133a0d4b95a1e5f15063a82,
        type: 3}
      propertyPath: m_Materials.Array.data[2]
      value: 
      objectReference: {fileID: 2100000, guid: ab2786477757fbd43b771db2e605f7fc, type: 2}
    - target: {fileID: 719951522629943928, guid: 2c20f5428133a0d4b95a1e5f15063a82,
        type: 3}
      propertyPath: m_Materials.Array.data[1]
      value: 
      objectReference: {fileID: 2100000, guid: 97b3705fe729aaa4689183daa05c7aa3, type: 2}
    - target: {fileID: 1410431847, guid: 2c20f5428133a0d4b95a1e5f15063a82, type: 3}
      propertyPath: m_LocalPosition.x
      value: -20
      objectReference: {fileID: 0}
    - target: {fileID: 1410431847, guid: 2c20f5428133a0d4b95a1e5f15063a82, type: 3}
      propertyPath: m_LocalPosition.y
      value: 0
      objectReference: {fileID: 0}
    - target: {fileID: 1410431847, guid: 2c20f5428133a0d4b95a1e5f15063a82, type: 3}
      propertyPath: m_LocalPosition.z
      value: 0
      objectReference: {fileID: 0}
    - target: {fileID: 1410431847, guid: 2c20f5428133a0d4b95a1e5f15063a82, type: 3}
      propertyPath: m_LocalRotation.x
      value: -0.7071068
      objectReference: {fileID: 0}
    - target: {fileID: 1410431847, guid: 2c20f5428133a0d4b95a1e5f15063a82, type: 3}
      propertyPath: m_LocalRotation.y
      value: -0
      objectReference: {fileID: 0}
    - target: {fileID: 1410431847, guid: 2c20f5428133a0d4b95a1e5f15063a82, type: 3}
      propertyPath: m_LocalRotation.z
      value: -0
      objectReference: {fileID: 0}
    - target: {fileID: 1410431847, guid: 2c20f5428133a0d4b95a1e5f15063a82, type: 3}
      propertyPath: m_LocalRotation.w
      value: 0.7071067
      objectReference: {fileID: 0}
    - target: {fileID: 1410431847, guid: 2c20f5428133a0d4b95a1e5f15063a82, type: 3}
      propertyPath: m_RootOrder
      value: 0
      objectReference: {fileID: 0}
    - target: {fileID: 1410431847, guid: 2c20f5428133a0d4b95a1e5f15063a82, type: 3}
      propertyPath: m_LocalEulerAnglesHint.x
      value: 0
      objectReference: {fileID: 0}
    - target: {fileID: 1410431847, guid: 2c20f5428133a0d4b95a1e5f15063a82, type: 3}
      propertyPath: m_LocalEulerAnglesHint.y
      value: 0
      objectReference: {fileID: 0}
    - target: {fileID: 1410431847, guid: 2c20f5428133a0d4b95a1e5f15063a82, type: 3}
      propertyPath: m_LocalEulerAnglesHint.z
      value: 0
      objectReference: {fileID: 0}
    m_RemovedComponents: []
  m_SourcePrefab: {fileID: 100100000, guid: 2c20f5428133a0d4b95a1e5f15063a82, type: 3}
