%YAML 1.1
%TAG !u! tag:unity3d.com,2011:
--- !u!1045 &1
EditorBuildSettings:
  m_ObjectHideFlags: 0
  serializedVersion: 2
  m_Scenes:
  - enabled: 1
    path: Assets/Scenes/MainMenu.unity
    guid: abf3101089d2d41448e766a7b4b8058e
  - enabled: 1
    path: Assets/Scenes/SampleScene.unity
    guid: 9d339f8fa567b76478aa37a65bad6bcf
  m_configObjects: {}
