%YAML 1.1
%TAG !u! tag:unity3d.com,2011:
--- !u!1001 &4559358996971355117
PrefabInstance:
  m_ObjectHideFlags: 0
  serializedVersion: 2
  m_Modification:
    m_TransformParent: {fileID: 0}
    m_Modifications:
    - target: {fileID: 6373910554548522520, guid: fa46e25c9580ffa45bc49e9d7f235b5a,
        type: 3}
      propertyPath: m_Name
      value: PRF_Door02 Green Variant
      objectReference: {fileID: 0}
    - target: {fileID: 3243451253153419262, guid: fa46e25c9580ffa45bc49e9d7f235b5a,
        type: 3}
      propertyPath: m_LocalPosition.x
      value: 2
      objectReference: {fileID: 0}
    - target: {fileID: 3243451253153419262, guid: fa46e25c9580ffa45bc49e9d7f235b5a,
        type: 3}
      propertyPath: m_LocalPosition.y
      value: 0
      objectReference: {fileID: 0}
    - target: {fileID: 3243451253153419262, guid: fa46e25c9580ffa45bc49e9d7f235b5a,
        type: 3}
      propertyPath: m_LocalPosition.z
      value: -4
      objectReference: {fileID: 0}
    - target: {fileID: 3243451253153419262, guid: fa46e25c9580ffa45bc49e9d7f235b5a,
        type: 3}
      propertyPath: m_LocalRotation.x
      value: -0.7071068
      objectReference: {fileID: 0}
    - target: {fileID: 3243451253153419262, guid: fa46e25c9580ffa45bc49e9d7f235b5a,
        type: 3}
      propertyPath: m_LocalRotation.y
      value: -0
      objectReference: {fileID: 0}
    - target: {fileID: 3243451253153419262, guid: fa46e25c9580ffa45bc49e9d7f235b5a,
        type: 3}
      propertyPath: m_LocalRotation.z
      value: -0
      objectReference: {fileID: 0}
    - target: {fileID: 3243451253153419262, guid: fa46e25c9580ffa45bc49e9d7f235b5a,
        type: 3}
      propertyPath: m_LocalRotation.w
      value: 0.7071067
      objectReference: {fileID: 0}
    - target: {fileID: 3243451253153419262, guid: fa46e25c9580ffa45bc49e9d7f235b5a,
        type: 3}
      propertyPath: m_RootOrder
      value: 0
      objectReference: {fileID: 0}
    - target: {fileID: 3243451253153419262, guid: fa46e25c9580ffa45bc49e9d7f235b5a,
        type: 3}
      propertyPath: m_LocalEulerAnglesHint.x
      value: 0
      objectReference: {fileID: 0}
    - target: {fileID: 3243451253153419262, guid: fa46e25c9580ffa45bc49e9d7f235b5a,
        type: 3}
      propertyPath: m_LocalEulerAnglesHint.y
      value: 0
      objectReference: {fileID: 0}
    - target: {fileID: 3243451253153419262, guid: fa46e25c9580ffa45bc49e9d7f235b5a,
        type: 3}
      propertyPath: m_LocalEulerAnglesHint.z
      value: 0
      objectReference: {fileID: 0}
    - target: {fileID: 4587975370451389965, guid: fa46e25c9580ffa45bc49e9d7f235b5a,
        type: 3}
      propertyPath: m_Materials.Array.data[0]
      value: 
      objectReference: {fileID: 2100000, guid: 4c4b47a57ff505b49b6047ddecb794bc, type: 2}
    - target: {fileID: 4587975370451389965, guid: fa46e25c9580ffa45bc49e9d7f235b5a,
        type: 3}
      propertyPath: m_Materials.Array.data[2]
      value: 
      objectReference: {fileID: 2100000, guid: 0b56bd573e0d50d41b9ff03b8e3adaf5, type: 2}
    - target: {fileID: 4587975370451389965, guid: fa46e25c9580ffa45bc49e9d7f235b5a,
        type: 3}
      propertyPath: m_Materials.Array.data[3]
      value: 
      objectReference: {fileID: 2100000, guid: 983030fe9419b404aadb9b8db79aab0c, type: 2}
    - target: {fileID: 4587975370451389965, guid: fa46e25c9580ffa45bc49e9d7f235b5a,
        type: 3}
      propertyPath: m_Materials.Array.data[1]
      value: 
      objectReference: {fileID: 2100000, guid: 0fe0e573e47fb0742b60645d9af57cf9, type: 2}
    m_RemovedComponents: []
  m_SourcePrefab: {fileID: 100100000, guid: fa46e25c9580ffa45bc49e9d7f235b5a, type: 3}
